{
  "internalStrategyName": "BadStrategy",
  "parameters": [],
  /* "parametersssss":[
      {
         "name":"Mala",
         "parameterJson":"121",
         "parameterType":"System.Decimal"
      }
   ],*/
  "dataSources": [
    {
      "exchange": 0,
      "pair": "BTC/USDT",
      "timeframe": 900
    }
  ],
  "isTest": true,
  "initialBalance": 100000,
  "startTime": "2017-01-01T00:00:00",
  "endTime": "2025-01-01T00:00:00"
}